6lowpan.ko
8021q.ko
act_csum.ko
act_gact.ko
act_ipt.ko
act_mirred.ko
act_nat.ko
act_pedit.ko
act_police.ko
act_simple.ko
act_skbedit.ko
aes_s390.ko
af_iucv.ko
af_key.ko
af_packet_diag.ko
ah4.ko
ah6.ko
ansi_cprng.ko
anubis.ko
ap.ko
appldata_mem.ko
appldata_net_sum.ko
appldata_os.ko
arc4.ko
arptable_filter.ko
arp_tables.ko
arpt_mangle.ko
async_memcpy.ko
async_pq.ko
async_raid6_recov.ko
async_tx.ko
async_xor.ko
atm.ko
authencesn.ko
authenc.ko
auth_rpcgss.ko
binfmt_misc.ko
blocklayoutdriver.ko
blowfish_common.ko
blowfish_generic.ko
bonding.ko
br2684.ko
brd.ko
bridge.ko
btrfs.ko
cachefiles.ko
camellia_generic.ko
cast5_generic.ko
cast6_generic.ko
cast_common.ko
ccm.ko
ccwgroup.ko
cdrom.ko
ceph.ko
ch.ko
chsc_sch.ko
cifs.ko
clip.ko
cls_basic.ko
cls_bpf.ko
cls_flow.ko
cls_fw.ko
cls_route.ko
cls_rsvp6.ko
cls_rsvp.ko
cls_tcindex.ko
cls_u32.ko
cmac.ko
cmm.ko
cordic.ko
cramfs.ko
crash.ko
crc8.ko
crc-ccitt.ko
crc-itu-t.ko
crct10dif_common.ko
crct10dif_generic.ko
crc-t10dif.ko
crypto_null.ko
crypto_user.ko
ctcm.ko
cts.ko
cuse.ko
dasd_diag_mod.ko
dasd_eckd_mod.ko
dasd_fba_mod.ko
dasd_mod.ko
dccp_diag.ko
dccp_ipv4.ko
dccp_ipv6.ko
dccp.ko
dcssblk.ko
deflate.ko
des_generic.ko
des_s390.ko
diag288_wdt.ko
dlci.ko
dlm.ko
dm-bio-prison.ko
dm-bufio.ko
dm-cache-cleaner.ko
dm-cache.ko
dm-cache-smq.ko
dm-crypt.ko
dm-delay.ko
dm-era.ko
dm-flakey.ko
dm-log.ko
dm-log-userspace.ko
dm-mirror.ko
dm-mod.ko
dm-multipath.ko
dm-persistent-data.ko
dm-queue-length.ko
dm-raid.ko
dm-region-hash.ko
dm-round-robin.ko
dm-service-time.ko
dm-snapshot.ko
dm-switch.ko
dm-thin-pool.ko
dm-verity.ko
dm-zero.ko
dns_resolver.ko
drbg.ko
dummy.ko
eadm_sch.ko
ebt_802_3.ko
ebtable_broute.ko
ebtable_filter.ko
ebtable_nat.ko
ebtables.ko
ebt_among.ko
ebt_arp.ko
ebt_arpreply.ko
ebt_dnat.ko
ebt_ip6.ko
ebt_ip.ko
ebt_limit.ko
ebt_log.ko
ebt_mark.ko
ebt_mark_m.ko
ebt_nflog.ko
ebt_pkttype.ko
ebt_redirect.ko
ebt_snat.ko
ebt_stp.ko
ebt_ulog.ko
ebt_vlan.ko
em_cmp.ko
em_ipset.ko
em_meta.ko
em_nbyte.ko
em_text.ko
em_u32.ko
enclosure.ko
encrypted-keys.ko
esp4.ko
esp6.ko
ext4.ko
fakelb.ko
fat.ko
faulty.ko
fcoe.ko
fcrypt.ko
fs3270.ko
fscache.ko
fsm.ko
fuse.ko
garp.ko
gcm.ko
geneve.ko
genwqe_card.ko
gf128mul.ko
gfs2.ko
ghash-generic.ko
ghash_s390.ko
grace.ko
gre.ko
hangcheck-timer.ko
hdlc_cisco.ko
hdlc_fr.ko
hdlc.ko
hdlc_ppp.ko
hdlc_raw.ko
hmcdrv.ko
ib_cm.ko
ib_core.ko
ib_ucm.ko
ib_uverbs.ko
ieee802154.ko
ifb.ko
inet_diag.ko
ip6_gre.ko
ip6table_filter.ko
ip6table_mangle.ko
ip6table_nat.ko
ip6table_raw.ko
ip6table_security.ko
ip6_tables.ko
ip6t_ah.ko
ip6t_eui64.ko
ip6t_frag.ko
ip6t_hbh.ko
ip6t_ipv6header.ko
ip6t_MASQUERADE.ko
ip6t_mh.ko
ip6t_REJECT.ko
ip6t_rpfilter.ko
ip6t_rt.ko
ip6t_SYNPROXY.ko
ip6_tunnel.ko
ip6_udp_tunnel.ko
ip6_vti.ko
ipcomp6.ko
ipcomp.ko
ip_gre.ko
ipip.ko
ip_set_bitmap_ip.ko
ip_set_bitmap_ipmac.ko
ip_set_bitmap_port.ko
ip_set_hash_ip.ko
ip_set_hash_ipportip.ko
ip_set_hash_ipport.ko
ip_set_hash_ipportnet.ko
ip_set_hash_netiface.ko
ip_set_hash_net.ko
ip_set_hash_netport.ko
ip_set.ko
ip_set_list_set.ko
iptable_filter.ko
iptable_mangle.ko
iptable_nat.ko
iptable_raw.ko
iptable_security.ko
ip_tables.ko
ipt_ah.ko
ipt_CLUSTERIP.ko
ipt_ECN.ko
ipt_MASQUERADE.ko
ipt_REJECT.ko
ipt_rpfilter.ko
ipt_SYNPROXY.ko
ipt_ULOG.ko
ip_tunnel.ko
ip_vs_dh.ko
ip_vs_ftp.ko
ip_vs.ko
ip_vs_lblc.ko
ip_vs_lblcr.ko
ip_vs_lc.ko
ip_vs_nq.ko
ip_vs_pe_sip.ko
ip_vs_rr.ko
ip_vs_sed.ko
ip_vs_sh.ko
ip_vs_wlc.ko
ip_vs_wrr.ko
ip_vti.ko
iscsi_boot_sysfs.ko
iscsi_target_mod.ko
iscsi_tcp.ko
isofs.ko
iw_cm.ko
jbd2.ko
khazad.ko
kvm.ko
l2tp_core.ko
l2tp_debugfs.ko
l2tp_eth.ko
l2tp_ip6.ko
l2tp_ip.ko
l2tp_netlink.ko
lcs.ko
lec.ko
libceph.ko
libcrc32c.ko
libfc.ko
libfcoe.ko
libiscsi.ko
libiscsi_tcp.ko
libore.ko
libosd.ko
libsas.ko
linear.ko
llc.ko
lockd.ko
loop.ko
lrw.ko
lzo.ko
mac802154.ko
mac-celtic.ko
mac-centeuro.ko
mac-croatian.ko
mac-cyrillic.ko
mac-gaelic.ko
mac-greek.ko
mac-iceland.ko
mac-inuit.ko
mac-romanian.ko
mac-roman.ko
mac-turkish.ko
macvlan.ko
macvtap.ko
mbcache.ko
md4.ko
michael_mic.ko
mip6.ko
mlx4_core.ko
mlx4_en.ko
mlx4_ib.ko
mlx5_core.ko
mlx5_ib.ko
monreader.ko
monwriter.ko
mrp.ko
msdos.ko
netconsole.ko
netlink_diag.ko
nf_conntrack_amanda.ko
nf_conntrack_broadcast.ko
nf_conntrack_ftp.ko
nf_conntrack_h323.ko
nf_conntrack_ipv4.ko
nf_conntrack_ipv6.ko
nf_conntrack_irc.ko
nf_conntrack.ko
nf_conntrack_netbios_ns.ko
nf_conntrack_netlink.ko
nf_conntrack_pptp.ko
nf_conntrack_proto_dccp.ko
nf_conntrack_proto_gre.ko
nf_conntrack_proto_sctp.ko
nf_conntrack_proto_udplite.ko
nf_conntrack_sane.ko
nf_conntrack_sip.ko
nf_conntrack_snmp.ko
nf_conntrack_tftp.ko
nf_defrag_ipv4.ko
nf_defrag_ipv6.ko
nf_log_common.ko
nf_log_ipv4.ko
nf_log_ipv6.ko
nf_nat_amanda.ko
nf_nat_ftp.ko
nf_nat_h323.ko
nf_nat_ipv4.ko
nf_nat_ipv6.ko
nf_nat_irc.ko
nf_nat.ko
nf_nat_masquerade_ipv4.ko
nf_nat_masquerade_ipv6.ko
nf_nat_pptp.ko
nf_nat_proto_dccp.ko
nf_nat_proto_gre.ko
nf_nat_proto_sctp.ko
nf_nat_proto_udplite.ko
nf_nat_sip.ko
nf_nat_snmp_basic.ko
nf_nat_tftp.ko
nfnetlink_acct.ko
nfnetlink_cthelper.ko
nfnetlink.ko
nfnetlink_log.ko
nfnetlink_queue.ko
nfs_acl.ko
nfsd.ko
nfs.ko
nfs_layout_flexfiles.ko
nfs_layout_nfsv41_files.ko
nfsv3.ko
nfsv4.ko
nf_synproxy_core.ko
nf_tables_bridge.ko
nf_tables_inet.ko
nf_tables_ipv4.ko
nf_tables_ipv6.ko
nf_tables.ko
nft_chain_nat_ipv4.ko
nft_chain_nat_ipv6.ko
nft_chain_route_ipv4.ko
nft_chain_route_ipv6.ko
nft_compat.ko
nft_counter.ko
nft_ct.ko
nft_exthdr.ko
nft_hash.ko
nft_limit.ko
nft_log.ko
nft_meta_bridge.ko
nft_meta.ko
nft_nat.ko
nft_queue.ko
nft_rbtree.ko
n_gsm.ko
nlmon.ko
nls_cp1250.ko
nls_cp1251.ko
nls_cp1255.ko
nls_cp737.ko
nls_cp775.ko
nls_cp850.ko
nls_cp852.ko
nls_cp855.ko
nls_cp857.ko
nls_cp860.ko
nls_cp861.ko
nls_cp862.ko
nls_cp863.ko
nls_cp864.ko
nls_cp865.ko
nls_cp866.ko
nls_cp869.ko
nls_cp874.ko
nls_cp932.ko
nls_cp936.ko
nls_cp949.ko
nls_cp950.ko
nls_euc-jp.ko
nls_iso8859-13.ko
nls_iso8859-14.ko
nls_iso8859-15.ko
nls_iso8859-1.ko
nls_iso8859-2.ko
nls_iso8859-3.ko
nls_iso8859-4.ko
nls_iso8859-5.ko
nls_iso8859-6.ko
nls_iso8859-7.ko
nls_iso8859-9.ko
nls_koi8-r.ko
nls_koi8-ru.ko
nls_koi8-u.ko
nls_utf8.ko
null_blk.ko
objlayoutdriver.ko
openvswitch.ko
oprofile.ko
osdblk.ko
osd.ko
osst.ko
overlay.ko
p8022.ko
pcbc.ko
pcrypt.ko
pktgen.ko
pps_core.ko
pps-ldisc.ko
prng.ko
psnap.ko
ptp.ko
qdio.ko
qeth.ko
qeth_l2.ko
qeth_l3.ko
raid0.ko
raid10.ko
raid1.ko
raid456.ko
raid6_pq.ko
raid6test.ko
raid_class.ko
rbd.ko
rdma_cm.ko
rdma_ucm.ko
rfkill.ko
ring_buffer_benchmark.ko
rmd128.ko
rmd160.ko
rmd256.ko
rmd320.ko
rpcsec_gss_krb5.ko
salsa20_generic.ko
sch_atm.ko
sch_cbq.ko
sch_choke.ko
sch_codel.ko
sch_drr.ko
sch_dsmark.ko
sch_fq_codel.ko
sch_fq.ko
sch_gred.ko
sch_hfsc.ko
sch_htb.ko
sch_ingress.ko
sch_mqprio.ko
sch_multiq.ko
sch_netem.ko
sch_plug.ko
sch_prio.ko
sch_qfq.ko
sch_red.ko
sch_sfb.ko
sch_sfq.ko
sch_tbf.ko
sch_teql.ko
sclp_async.ko
sclp_cpi.ko
scm_block.ko
scsi_debug.ko
scsi_tgt.ko
scsi_transport_fc.ko
scsi_transport_iscsi.ko
scsi_transport_sas.ko
scsi_transport_spi.ko
scsi_transport_srp.ko
sctp.ko
sctp_probe.ko
sd_mod.ko
seed.ko
serpent_generic.ko
ses.ko
sg.ko
sha512_generic.ko
sha512_s390.ko
sit.ko
smsgiucv_app.ko
smsgiucv.ko
softdog.ko
sparse-keymap.ko
squashfs.ko
sr_mod.ko
st.ko
stp.ko
sunrpc.ko
tape_34xx.ko
tape_3590.ko
tape_class.ko
tape.ko
target_core_file.ko
target_core_iblock.ko
target_core_mod.ko
target_core_pscsi.ko
tcm_fc.ko
tcm_loop.ko
tcp_bic.ko
tcp_dctcp.ko
tcp_diag.ko
tcp_highspeed.ko
tcp_htcp.ko
tcp_hybla.ko
tcp_illinois.ko
tcp_lp.ko
tcp_scalable.ko
tcp_vegas.ko
tcp_veno.ko
tcp_westwood.ko
tcp_yeah.ko
tcrypt.ko
tea.ko
team.ko
team_mode_activebackup.ko
team_mode_broadcast.ko
team_mode_loadbalance.ko
team_mode_random.ko
team_mode_roundrobin.ko
tgr192.ko
ts_bm.ko
ts_fsm.ko
ts_kmp.ko
tun.ko
tunnel4.ko
tunnel6.ko
twofish_common.ko
twofish_generic.ko
udf.ko
udp_diag.ko
udp_tunnel.ko
unix_diag.ko
veth.ko
vfat.ko
vhost.ko
vhost_net.ko
virtio_balloon.ko
virtio_blk.ko
virtio_input.ko
virtio_net.ko
virtio-rng.ko
virtio_scsi.ko
vmac.ko
vmlogrdr.ko
vmur.ko
vport-geneve.ko
vport-gre.ko
vport-vxlan.ko
vringh.ko
vsock.ko
vxlan.ko
wp512.ko
xcbc.ko
xfrm4_mode_beet.ko
xfrm4_mode_transport.ko
xfrm4_mode_tunnel.ko
xfrm4_tunnel.ko
xfrm6_mode_beet.ko
xfrm6_mode_ro.ko
xfrm6_mode_transport.ko
xfrm6_mode_tunnel.ko
xfrm6_tunnel.ko
xfrm_ipcomp.ko
xfs.ko
xor.ko
xpram.ko
xt_addrtype.ko
xt_AUDIT.ko
xt_bpf.ko
xt_cgroup.ko
xt_CHECKSUM.ko
xt_CLASSIFY.ko
xt_cluster.ko
xt_comment.ko
xt_connbytes.ko
xt_connlabel.ko
xt_connlimit.ko
xt_connmark.ko
xt_CONNSECMARK.ko
xt_conntrack.ko
xt_cpu.ko
xt_CT.ko
xt_dccp.ko
xt_devgroup.ko
xt_dscp.ko
xt_DSCP.ko
xt_ecn.ko
xt_esp.ko
xt_hashlimit.ko
xt_helper.ko
xt_hl.ko
xt_HL.ko
xt_HMARK.ko
xt_IDLETIMER.ko
xt_iprange.ko
xt_ipvs.ko
xt_length.ko
xt_limit.ko
xt_LOG.ko
xt_mac.ko
xt_mark.ko
xt_multiport.ko
xt_nat.ko
xt_NETMAP.ko
xt_nfacct.ko
xt_NFLOG.ko
xt_NFQUEUE.ko
xt_osf.ko
xt_owner.ko
xt_physdev.ko
xt_pkttype.ko
xt_policy.ko
xt_quota.ko
xt_rateest.ko
xt_RATEEST.ko
xt_realm.ko
xt_recent.ko
xt_REDIRECT.ko
xt_sctp.ko
xt_SECMARK.ko
xt_set.ko
xts.ko
xt_socket.ko
xt_state.ko
xt_statistic.ko
xt_string.ko
xt_tcpmss.ko
xt_TCPMSS.ko
xt_TCPOPTSTRIP.ko
xt_TEE.ko
xt_time.ko
xt_TPROXY.ko
xt_TRACE.ko
xt_u32.ko
zcrypt_api.ko
zcrypt_cex2a.ko
zcrypt_cex4.ko
zcrypt_msgtype50.ko
zcrypt_msgtype6.ko
zcrypt_pcica.ko
zcrypt_pcicc.ko
zcrypt_pcixcc.ko
zfcp.ko
zlib_deflate.ko
zlib.ko
zram.ko
